Mini-Project #04: Just the Fact(-Check)s, Ma’am! – STA 9750 Submission Material
…
# ---- 4. Clean values and convert to proper types ----
payroll_data <- df |>
  mutate(
    Month = str_to_title(Month),                # "JAN" → "Jan"
    level = as.numeric(str_replace(level, ",", "")),  # convert text to numeric
    date  = ym(paste(Year, Month))              # "1979 Jan" → 1979-01-01
  ) |>
  drop_na(level) |>                             # remove footnote rows
  select(date, level) |>
  arrange(date)

payroll_data

# A tibble: 559 × 2
   date       level
   <date>     <dbl>
 1 1979-01-01 88808
 2 1979-02-01 89055
 3 1979-03-01 89479
 4 1979-04-01 89417
 5 1979-05-01 89789
 6 1979-06-01 90108
 7 1979-07-01 90217
 8 1979-08-01 90300
 9 1979-09-01 90327
10 1979-10-01 90481
# ℹ 549 more rows
…
# Retrieve full dataset
revision_results <- compile_revisions()

Merge Payroll & Revision Data

Show the code

payroll_revisions <- payroll_data |>
  left_join(revision_results, by = "date") |>
  arrange(date)

payroll_revisions

# A tibble: 559 × 5
   date       level original final revision
   <date>     <dbl>    <dbl> <dbl>    <dbl>
 1 1979-01-01 88808      325   243      -82
 2 1979-02-01 89055      301   294       -7
 3 1979-03-01 89479      324   445      121
 4 1979-04-01 89417       72   -15      -87
 5 1979-05-01 89789      171   291      120
 6 1979-06-01 90108       97   225      128
 7 1979-07-01 90217       44    87       43
 8 1979-08-01 90300        2    49       47
 9 1979-09-01 90327      135    41      -94
10 1979-10-01 90481      306   179     -127
# ℹ 549 more rows
…
Show the code

positive_fraction_year <- payroll_revisions |>
  mutate(pos = revision > 0) |>
  filter(!is.na(revision)) |>
  group_by(year = year(date)) |>
  summarize(
    percent_positive = mean(pos) * 100,
    n_months = n()
  )

positive_fraction_year

# A tibble: 47 × 3
    year percent_positive n_months
   <dbl>            <dbl>    <int>
 1  1979             41.7       12
 2  1980             75         12
 3  1981             58.3       12
 4  1982             50         12
 5  1983             50         12
 6  1984             66.7       12
 7  1985             25         12
 8  1986             25         12
 9  1987             41.7       12
10  1988             50         12
# ℹ 37 more rows
…
Relative revision magnitude over time (absolute revision / final estimate)

Show the code

relative_revision_trend <- payroll_revisions |>
  filter(!is.na(final), !is.na(revision)) |>
  mutate(rel_revision = abs(revision) / final) |>
  group_by(year = year(date)) |>
  summarize(
    avg_rel_revision = mean(rel_revision, na.rm = TRUE)
  )

relative_revision_trend

# A tibble: 47 × 2
    year avg_rel_revision
   <dbl>            <dbl>
 1  1979            0.197
 2  1980           -0.457
 3  1981            0.863
 4  1982           -0.474
 5  1983            0.234
 6  1984            0.256
 7  1985            0.178
 8  1986            0.413
 9  1987            0.142
10  1988            0.245
# ℹ 37 more rows
…
